<svg width="131" height="128" viewBox="0 0 131 128" fill="none" xmlns="http://www.w3.org/2000/svg">
<path fill-rule="evenodd" clip-rule="evenodd" d="M22.921 15.527C22.2955 16.1749 22.3068 17.1986 22.9466 17.8327L26.6368 21.4903L12.9854 78.5886L54.7845 120L110.047 104.163L114.489 108.565C115.047 109.118 115.946 109.141 116.532 108.617C117.16 108.055 117.186 107.088 116.59 106.493L25.3082 15.5044C24.6477 14.846 23.5687 14.8562 22.921 15.527Z" fill="url(#paint0_linear)"/>
<path d="M83.5132 32L65.554 14.0389" stroke="#7FA9B3" stroke-width="4" stroke-linecap="round"/>
<path d="M70.5657 32L50.4019 12.0394" stroke="#7FA9B3" stroke-width="4" stroke-linecap="round"/>
<path d="M56.2329 32L33.2295 9.04011" stroke="#7FA9B3" stroke-width="4" stroke-linecap="round"/>
<path fill-rule="evenodd" clip-rule="evenodd" d="M85.7183 77V46H41.2704V77H85.7183Z" fill="white"/>
<path d="M83.799 79H44.1999C41.4674 78.997 39.253 76.8009 39.25 74.0909V47.9091C39.253 45.1991 41.4674 43.003 44.1999 43H63.9994C64.9107 43 65.6494 43.7326 65.6494 44.6364C65.6494 45.5401 64.9107 46.2727 63.9994 46.2727H44.1999C43.289 46.2735 42.5507 47.0057 42.5499 47.9091V74.0909C42.5507 74.9943 43.289 75.7265 44.1999 75.7273H83.799C84.7099 75.7265 85.4481 74.9943 85.4489 74.0909V62.6148C85.4489 61.711 86.1877 60.9784 87.0989 60.9784C88.0102 60.9784 88.7489 61.711 88.7489 62.6148V74.0909C88.7459 76.8009 86.5315 78.997 83.799 79Z" fill="#183B56"/>
<path fill-rule="evenodd" clip-rule="evenodd" d="M56.0856 88H72.9234C73.4278 87.9997 73.9055 87.7693 74.2251 87.3721C74.5447 86.9749 74.6726 86.4527 74.5736 85.9492L72.8898 77.3778C72.7323 76.577 72.0418 76.0004 71.2397 76H57.7694C56.9672 76.0004 56.2767 76.577 56.1193 77.3778L54.4355 85.9492C54.3365 86.4527 54.4644 86.9749 54.784 87.3721C55.1036 87.7693 55.5812 87.9997 56.0856 88ZM70.8692 84.5714H58.1398L59.1489 79.4286H69.859L70.8692 84.5714Z" fill="#183B56"/>
<path d="M79.0512 88H49.958C49.0653 88 48.3417 87.1046 48.3417 86C48.3417 84.8954 49.0653 84 49.958 84H79.0512C79.9438 84 80.6675 84.8954 80.6675 86C80.6675 87.1046 79.9438 88 79.0512 88Z" fill="#183B56"/>
<path d="M54.7395 65H48.0049C47.0751 65 46.3213 64.1046 46.3213 63C46.3213 61.8954 47.0751 61 48.0049 61H54.7395C55.6693 61 56.4231 61.8954 56.4231 63C56.4231 64.1046 55.6693 65 54.7395 65Z" fill="#FBBD92"/>
<path d="M60.8679 71H47.9376C47.0449 71 46.3213 70.1046 46.3213 69C46.3213 67.8954 47.0449 67 47.9376 67H60.8679C61.7605 67 62.4842 67.8954 62.4842 69C62.4842 70.1046 61.7605 71 60.8679 71Z" fill="#FBBD92"/>
<path d="M74.0302 58C73.6145 58.0005 73.2157 57.8201 72.9222 57.4986L69.0045 53.2204C68.7105 52.8996 68.5453 52.4644 68.5453 52.0105C68.5453 51.5567 68.7105 51.1214 69.0045 50.8007L72.9222 46.5225C73.3157 46.0776 73.8983 45.8992 74.4462 46.0558C74.9941 46.2124 75.422 46.6797 75.5654 47.278C75.7089 47.8763 75.5455 48.5126 75.1381 48.9422L72.3285 52.0105L75.1381 55.0789C75.5861 55.5683 75.7202 56.3042 75.4777 56.9436C75.2352 57.5829 74.6639 57.9999 74.0302 58Z" fill="#FBBD92"/>
<path d="M79.1531 59C78.6776 58.9991 78.23 58.7697 77.9436 58.3802C77.6571 57.9907 77.5648 57.4859 77.6942 57.0163L80.7244 46.1287C80.9545 45.3024 81.7935 44.8241 82.5984 45.0603C83.4033 45.2966 83.8693 46.1579 83.6391 46.9842L80.6089 57.8717C80.4225 58.5387 79.8289 58.9987 79.1531 59Z" fill="#FBBD92"/>
<path d="M86.7888 53.5507V56.5507" stroke="#183B56" stroke-width="3" stroke-linecap="round"/>
<defs>
<linearGradient id="paint0_linear" x1="-39.0322" y1="67.5085" x2="65.9461" y2="171.539" gradientUnits="userSpaceOnUse">
<stop stop-color="#BBD6D9"/>
<stop offset="1" stop-color="#507785"/>
</linearGradient>
</defs>
</svg>
