<svg width="1440" height="621" viewBox="0 0 1440 621" fill="none" xmlns="http://www.w3.org/2000/svg">
<path opacity="0.796642" fill-rule="evenodd" clip-rule="evenodd" d="M0 0.928907L1441 -0.00244141V348.047C1441 434.009 1373.08 504.608 1287.18 507.927L0 557.666L0 0.928907Z" fill="url(#paint0_linear)"/>
<mask id="mask0" mask-type="alpha" maskUnits="userSpaceOnUse" x="0" y="-1" width="1441" height="559">
<path fill-rule="evenodd" clip-rule="evenodd" d="M0 0.928907L1441 -0.00244141V348.047C1441 434.009 1373.08 504.608 1287.18 507.927L0 557.666L0 0.928907Z" fill="white"/>
</mask>
<g mask="url(#mask0)">
<circle cx="1385.43" cy="-31" r="629.5" fill="url(#paint1_linear)"/>
</g>
<path fill-rule="evenodd" clip-rule="evenodd" d="M695.269 604.473L1.7315 621L0.926758 -2.99718L115.982 -0.748397L695.269 604.473Z" fill="url(#paint2_linear)"/>
<defs>
<linearGradient id="paint0_linear" x1="873.121" y1="50.3442" x2="502.498" y2="651.933" gradientUnits="userSpaceOnUse">
<stop stop-color="#EAF2F0"/>
<stop offset="1" stop-color="#F0FAFF"/>
</linearGradient>
<linearGradient id="paint1_linear" x1="380.835" y1="-667.237" x2="1453.92" y2="701.185" gradientUnits="userSpaceOnUse">
<stop stop-color="#D5EDE5"/>
<stop offset="1" stop-color="#F8FAFD"/>
</linearGradient>
<linearGradient id="paint2_linear" x1="7.43243" y1="-3" x2="7.43243" y2="609.307" gradientUnits="userSpaceOnUse">
<stop stop-color="#DEF3FC" stop-opacity="0.511364"/>
<stop offset="1" stop-color="#F2FBFF" stop-opacity="0.132594"/>
</linearGradient>
</defs>
</svg>
